%YAML 1.1
%TAG !u! tag:unity3d.com,2011:
--- !u!1 &751592492191116969
GameObject:
  m_ObjectHideFlags: 0
  m_CorrespondingSourceObject: {fileID: 0}
  m_PrefabInstance: {fileID: 0}
  m_PrefabAsset: {fileID: 0}
  serializedVersion: 6
  m_Component:
  - component: {fileID: 751592492191116968}
  m_Layer: 0
  m_Name: LevelPart01
  m_TagString: Untagged
  m_Icon: {fileID: 0}
  m_NavMeshLayer: 0
  m_StaticEditorFlags: 0
  m_IsActive: 1
--- !u!4 &751592492191116968
Transform:
  m_ObjectHideFlags: 0
  m_CorrespondingSourceObject: {fileID: 0}
  m_PrefabInstance: {fileID: 0}
  m_PrefabAsset: {fileID: 0}
  m_GameObject: {fileID: 751592492191116969}
  m_LocalRotation: {x: 0, y: 0, z: 0, w: 1}
  m_LocalPosition: {x: -8.843706, y: -6.37, z: 8.364991}
  m_LocalScale: {x: 1, y: 1, z: 1}
  m_Children:
  - {fileID: 751592493191907946}
  - {fileID: 2397969056856515247}
  m_Father: {fileID: 0}
  m_RootOrder: 0
  m_LocalEulerAnglesHint: {x: 0, y: 0, z: 0}
--- !u!1 &751592493191907947
GameObject:
  m_ObjectHideFlags: 0
  m_CorrespondingSourceObject: {fileID: 0}
  m_PrefabInstance: {fileID: 0}
  m_PrefabAsset: {fileID: 0}
  serializedVersion: 6
  m_Component:
  - component: {fileID: 751592493191907946}
  m_Layer: 0
  m_Name: FinalPart
  m_TagString: PuntoFinal
  m_Icon: {fileID: -5397416234189338067, guid: 0000000000000000d000000000000000, type: 0}
  m_NavMeshLayer: 0
  m_StaticEditorFlags: 0
  m_IsActive: 1
--- !u!4 &751592493191907946
Transform:
  m_ObjectHideFlags: 0
  m_CorrespondingSourceObject: {fileID: 0}
  m_PrefabInstance: {fileID: 0}
  m_PrefabAsset: {fileID: 0}
  m_GameObject: {fileID: 751592493191907947}
  m_LocalRotation: {x: -0, y: -0, z: -0, w: 1}
  m_LocalPosition: {x: 0.807, y: 5.73, z: 0.004}
  m_LocalScale: {x: 1, y: 1, z: 1}
  m_Children: []
  m_Father: {fileID: 751592492191116968}
  m_RootOrder: 0
  m_LocalEulerAnglesHint: {x: 0, y: 0, z: 0}
--- !u!1001 &751592491277596643
PrefabInstance:
  m_ObjectHideFlags: 0
  serializedVersion: 2
  m_Modification:
    m_TransformParent: {fileID: 751592492191116968}
    m_Modifications:
    - target: {fileID: 2179669992347704550, guid: a625aeb9a93092d44ab5784bcadd1c80,
        type: 3}
      propertyPath: m_Name
      value: Plataformas2D (1)
      objectReference: {fileID: 0}
    - target: {fileID: 3110154755033011532, guid: a625aeb9a93092d44ab5784bcadd1c80,
        type: 3}
      propertyPath: m_LocalPosition.x
      value: 0
      objectReference: {fileID: 0}
    - target: {fileID: 3110154755033011532, guid: a625aeb9a93092d44ab5784bcadd1c80,
        type: 3}
      propertyPath: m_LocalPosition.y
      value: 8.85
      objectReference: {fileID: 0}
    - target: {fileID: 3110154755033011532, guid: a625aeb9a93092d44ab5784bcadd1c80,
        type: 3}
      propertyPath: m_LocalPosition.z
      value: 7.985009
      objectReference: {fileID: 0}
    - target: {fileID: 3110154755033011532, guid: a625aeb9a93092d44ab5784bcadd1c80,
        type: 3}
      propertyPath: m_LocalRotation.x
      value: -0
      objectReference: {fileID: 0}
    - target: {fileID: 3110154755033011532, guid: a625aeb9a93092d44ab5784bcadd1c80,
        type: 3}
      propertyPath: m_LocalRotation.y
      value: -0
      objectReference: {fileID: 0}
    - target: {fileID: 3110154755033011532, guid: a625aeb9a93092d44ab5784bcadd1c80,
        type: 3}
      propertyPath: m_LocalRotation.z
      value: -0
      objectReference: {fileID: 0}
    - target: {fileID: 3110154755033011532, guid: a625aeb9a93092d44ab5784bcadd1c80,
        type: 3}
      propertyPath: m_LocalRotation.w
      value: 1
      objectReference: {fileID: 0}
    - target: {fileID: 3110154755033011532, guid: a625aeb9a93092d44ab5784bcadd1c80,
        type: 3}
      propertyPath: m_RootOrder
      value: 1
      objectReference: {fileID: 0}
    - target: {fileID: 3110154755033011532, guid: a625aeb9a93092d44ab5784bcadd1c80,
        type: 3}
      propertyPath: m_LocalEulerAnglesHint.x
      value: 0
      objectReference: {fileID: 0}
    - target: {fileID: 3110154755033011532, guid: a625aeb9a93092d44ab5784bcadd1c80,
        type: 3}
      propertyPath: m_LocalEulerAnglesHint.y
      value: 0
      objectReference: {fileID: 0}
    - target: {fileID: 3110154755033011532, guid: a625aeb9a93092d44ab5784bcadd1c80,
        type: 3}
      propertyPath: m_LocalEulerAnglesHint.z
      value: 0
      objectReference: {fileID: 0}
    - target: {fileID: 5350991360618884083, guid: a625aeb9a93092d44ab5784bcadd1c80,
        type: 3}
      propertyPath: m_LocalPosition.z
      value: -7.93
      objectReference: {fileID: 0}
    - target: {fileID: 6904937179520733120, guid: a625aeb9a93092d44ab5784bcadd1c80,
        type: 3}
      propertyPath: m_LocalRotation.x
      value: 0
      objectReference: {fileID: 0}
    - target: {fileID: 6904937179520733120, guid: a625aeb9a93092d44ab5784bcadd1c80,
        type: 3}
      propertyPath: m_LocalRotation.y
      value: 0
      objectReference: {fileID: 0}
    - target: {fileID: 6904937179520733120, guid: a625aeb9a93092d44ab5784bcadd1c80,
        type: 3}
      propertyPath: m_LocalRotation.z
      value: 0
      objectReference: {fileID: 0}
    - target: {fileID: 6904937179520733120, guid: a625aeb9a93092d44ab5784bcadd1c80,
        type: 3}
      propertyPath: m_LocalPosition.x
      value: -1.56
      objectReference: {fileID: 0}
    - target: {fileID: 6904937179520733120, guid: a625aeb9a93092d44ab5784bcadd1c80,
        type: 3}
      propertyPath: m_LocalPosition.y
      value: -2.1
      objectReference: {fileID: 0}
    - target: {fileID: 6904937179520733120, guid: a625aeb9a93092d44ab5784bcadd1c80,
        type: 3}
      propertyPath: m_LocalPosition.z
      value: -7.93
      objectReference: {fileID: 0}
    - target: {fileID: 8789312539953410653, guid: a625aeb9a93092d44ab5784bcadd1c80,
        type: 3}
      propertyPath: m_LocalPosition.y
      value: 2.63
      objectReference: {fileID: 0}
    - target: {fileID: 8789312539953410653, guid: a625aeb9a93092d44ab5784bcadd1c80,
        type: 3}
      propertyPath: m_LocalPosition.x
      value: -1.56
      objectReference: {fileID: 0}
    m_RemovedComponents: []
  m_SourcePrefab: {fileID: 100100000, guid: a625aeb9a93092d44ab5784bcadd1c80, type: 3}
--- !u!4 &2397969056856515247 stripped
Transform:
  m_CorrespondingSourceObject: {fileID: 3110154755033011532, guid: a625aeb9a93092d44ab5784bcadd1c80,
    type: 3}
  m_PrefabInstance: {fileID: 751592491277596643}
  m_PrefabAsset: {fileID: 0}
